<svg width="11" height="21" viewBox="0 0 11 21" fill="none" xmlns="http://www.w3.org/2000/svg">
<path d="M0.0140381 10.2551C0.0140381 10.5103 0.141658 10.6378 0.26928 10.7654L9.45804 19.9506C9.58566 20.0782 9.84091 20.2057 9.96853 20.2057C10.2238 20.2057 10.3514 20.0782 10.479 19.9506C10.7343 19.6955 10.7343 19.1852 10.479 18.8025L1.80074 10.2551L10.479 1.58023C10.7343 1.32509 10.7343 0.814797 10.479 0.432081C10.2238 0.176937 9.71328 0.176937 9.33042 0.432081L0.14166 9.61727C0.0140386 9.87241 0.0140381 10.1276 0.0140381 10.2551Z" fill="white"/>
</svg>
