<svg width="168" height="168" viewBox="0 0 168 168" fill="none" xmlns="http://www.w3.org/2000/svg">
<path d="M84.1 167.5C130.4 167.5 167.9 130 167.9 83.7C167.9 37.4 130.4 0 84.1 0C37.8 0 0.299988 37.5 0.299988 83.8C0.299988 130.1 37.8 167.5 84.1 167.5Z" fill="url(#paint0_radial)"/>
<path d="M84.1 161.9C127.3 161.9 162.3 126.9 162.3 83.7C162.3 40.5 127.3 5.5 84.1 5.5C40.9 5.5 5.89999 40.5 5.89999 83.7C5.89999 126.9 40.9 161.9 84.1 161.9Z" fill="white"/>
<path d="M56.7 97.8008H41.8V103.201H56.7V97.8008Z" fill="#6E7A79"/>
<path d="M65 54.4004H56.7L56.6 58.5004H65.1L65 54.4004Z" fill="#6E7A79"/>
<path d="M78.8 69.6006H73.3L73 73.7006H79.1L78.8 69.6006Z" fill="#6E7A79"/>
<path d="M92.6 69.6006H87.1L86.8 73.7006H92.8L92.6 69.6006Z" fill="#6E7A79"/>
<path d="M106.4 69.6006H100.9L100.6 73.7006H106.6L106.4 69.6006Z" fill="#6E7A79"/>
<path d="M118.8 97.1006H60.9V116.401H118.8V97.1006Z" fill="#D0D6D6"/>
<path d="M120.5 93.3008H60.9V97.4008H120.5V93.3008Z" fill="#6E7A79"/>
<path d="M113.1 55.7C107.4 56.3 102 53.9 98.7 49.2C98.3 48.6 97.4 48.4 96.7 48.8C95.4 49.6 93.8 50.1 92.3 50.3C89.2 50.6 86 49.6 83.7 47.5C83.2 47 82.5 47 81.8 47.5C80.7 48.3 79.5 48.8 78.1 48.9C76.6 49.1 75.1 48.8 73.8 48.1C73.8 48.2 73.8 48.4 73.8 48.5C75.2 50.1 77.1 51 79.2 51C80.4 51 81.6 50.7 82.6 50.1C83.2 49.7 83.9 49.9 84.3 50.3C86.2 52.5 88.9 53.7 91.7 53.7C93.1 53.7 94.5 53.4 95.8 52.8C96.5 52.5 97.2 52.7 97.5 53.3C99.9 57.8 104.6 60.6 109.7 60.6C116.2 60.6 121.6 56.2 123.2 50.2C120.8 53.2 117.2 55.3 113.1 55.7Z" fill="#D0D6D6"/>
<path d="M124.8 115.8H120.6V98C121.4 97.2 122 96.2 122 95C122 92.8 120.2 90.9 117.9 90.9H109.4L108.1 69.9C108 69.2 107.5 68.7 106.8 68.7H101.3C100.6 68.7 100.1 69.2 100 69.9L98.7 90.9H95.6L94.3 69.9C94.2 69.2 93.7 68.7 93 68.7H87.5C86.8 68.7 86.3 69.2 86.2 69.9L84.9 90.9H81.8L80.5 69.9C80.4 69.2 79.9 68.7 79.2 68.7H73.7C73 68.7 72.5 69.2 72.4 69.9L71.1 90.9H67.5L66.7 54.7C66.7 53.9 66.1 53.5 65.4 53.5H57.1C56.3 53.5 55.9 54.1 55.8 54.7L54.9 96.4H44.7C42.5 96.4 40.6 98.2 40.6 100.5C40.6 101.7 41.1 102.8 42 103.5V115.8H39.1C38.3 115.8 37.8 116.4 37.8 117.1C37.8 117.8 38.4 118.4 39.1 118.4H125C125.8 118.4 126.3 117.8 126.3 117.1C126.3 116.4 125.5 115.8 124.8 115.8ZM54.6 102H50C49.2 102 48.7 102.6 48.7 103.3C48.7 104.1 49.3 104.6 50 104.6H54.6L54.4 115.8H44.5V104.6H44.6C45.4 104.6 45.9 104 45.9 103.3C45.9 102.5 45.3 102 44.6 102C43.8 102 43.2 101.3 43.2 100.6C43.2 99.8 43.9 99.2 44.6 99.2H54.8V102H54.6ZM102.5 71.3H105.6L106.8 90.9H101.2L102.5 71.3ZM88.6 71.3H91.7L92.9 90.9H87.3L88.6 71.3ZM74.8 71.3H77.9L79.1 90.9H73.5L74.8 71.3ZM59.8 115.8H56.9L58.2 56.1H64L64.8 91H62.5C60.3 91 58.4 92.8 58.4 95.1C58.4 96.3 58.9 97.4 59.8 98.1V115.8ZM117.9 96.4H115.2C114.4 96.4 113.9 97 113.9 97.7C113.9 98.5 114.5 99 115.2 99H117.9H118V115.8H62.4V99H62.5H109.7C110.5 99 111 98.4 111 97.7C111 96.9 110.4 96.4 109.7 96.4H62.5C61.7 96.4 61.1 95.7 61.1 95C61.1 94.2 61.8 93.6 62.5 93.6H117.9C118.7 93.6 119.3 94.3 119.3 95C119.3 95.7 118.7 96.4 117.9 96.4Z" fill="#042C49"/>
<path d="M109.6 29.9004C105.7 29.9004 101.9 31.3004 99 33.8004C96.8 32.2004 94.3 31.3004 91.6 31.3004C88.3 31.3004 85.2 32.6004 83 34.9004C81.8 34.4004 80.5 34.1004 79.2 34.1004C75.3 34.1004 71.9 36.4004 70.4 39.9004C69.9 39.7004 69.3 39.7004 68.8 39.7004C66.1 39.7004 63.8 41.4004 63 43.9004C62.8 43.9004 62.8 43.9004 62.5 43.9004C60.3 43.9004 58.4 45.7004 58.4 48.0004C58.4 48.8004 59 49.3004 59.7 49.3004C60.4 49.3004 61 48.7004 61 48.0004C61 47.2004 61.7 46.6004 62.4 46.6004C62.6 46.6004 62.9 46.7004 63.2 46.8004C63.6 47.0004 64 47.0004 64.4 46.9004C64.8 46.7004 65.1 46.3004 65.1 45.8004C65.3 44.0004 66.8 42.5004 68.7 42.5004C69.3 42.5004 69.9 42.7004 70.4 43.0004C70.7 43.2004 71.2 43.2004 71.5 43.1004C71.8 43.0004 72.2 42.6004 72.3 42.3004C73.1 39.2004 75.9 37.1004 79 37.1004C80.2 37.1004 81.4 37.4004 82.4 38.0004C82.9 38.3004 83.6 38.2004 84.1 37.8004C85.9 35.6004 88.6 34.4004 91.5 34.4004C93.9 34.4004 96.2 35.3004 98.1 37.0004C98.6 37.5004 99.3 37.5004 99.8 37.0004C102.5 34.5004 105.9 33.1004 109.4 33.1004C117.1 33.1004 123.4 39.3004 123.4 47.0004C123.4 54.7004 117.2 60.9004 109.4 60.9004C104.2 60.9004 99.6 58.2004 97.2 53.6004C96.9 53.0004 96.1 52.8004 95.5 53.1004C94.2 53.7004 92.8 54.0004 91.4 54.0004C88.6 54.0004 85.9 52.8004 84 50.6004C83.6 50.1004 82.9 50.0004 82.3 50.4004C81.2 51.0004 80.1 51.3004 78.9 51.3004C76.7 51.3004 74.7 50.3004 73.3 48.6004C73.1 48.3004 72.7 48.1004 72.2 48.1004C71.8 48.1004 71.4 48.3004 71.1 48.6004C70.4 49.4004 69.4 50.0004 68.4 50.0004C67.6 50.0004 67.1 50.6004 67.1 51.3004C67.1 52.0004 67.7 52.6004 68.4 52.6004C69.8 52.6004 71.1 52.1004 72.1 51.3004C73.8 53.0004 76.3 54.0004 78.8 54.0004C80.1 54.0004 81.5 53.8004 82.6 53.2004C84.9 55.5004 88 56.8004 91.2 56.8004C92.6 56.8004 93.9 56.6004 95.3 56.0004C98.3 60.7004 103.6 63.7004 109.3 63.7004C118.5 63.7004 125.8 56.3004 125.8 47.2004C126.1 37.3004 118.7 29.9004 109.6 29.9004Z" fill="#042C49"/>
<path d="M70.8 102C70 102 69.5 102.6 69.5 103.3V106C69.5 106.8 70.1 107.3 70.8 107.3C71.6 107.3 72.1 106.7 72.1 106V103.3C72.1 102.6 71.5 102 70.8 102Z" fill="#042C49"/>
<path d="M76.3 102C75.5 102 75 102.6 75 103.3V106C75 106.8 75.6 107.3 76.3 107.3C77 107.3 77.6 106.7 77.6 106V103.3C77.6 102.6 77 102 76.3 102Z" fill="#042C49"/>
<path d="M81.9 102C81.1 102 80.6 102.6 80.6 103.3V106C80.6 106.8 81.2 107.3 81.9 107.3C82.6 107.3 83.2 106.7 83.2 106V103.3C83.2 102.6 82.6 102 81.9 102Z" fill="#042C49"/>
<path d="M87.4 102C86.6 102 86.1 102.6 86.1 103.3V106C86.1 106.8 86.7 107.3 87.4 107.3C88.2 107.3 88.7 106.7 88.7 106V103.3C88.7 102.6 88.1 102 87.4 102Z" fill="#042C49"/>
<path d="M93 102C92.2 102 91.7 102.6 91.7 103.3V106C91.7 106.8 92.3 107.3 93 107.3C93.7 107.3 94.3 106.7 94.3 106V103.3C94.2 102.6 93.6 102 93 102Z" fill="#042C49"/>
<path d="M98.5 102C97.7 102 97.2 102.6 97.2 103.3V106C97.2 106.8 97.8 107.3 98.5 107.3C99.2 107.3 99.8 106.7 99.8 106V103.3C99.8 102.6 99.2 102 98.5 102Z" fill="#042C49"/>
<path d="M104 102C103.2 102 102.7 102.6 102.7 103.3V106C102.7 106.8 103.3 107.3 104 107.3C104.8 107.3 105.3 106.7 105.3 106V103.3C105.4 102.6 104.8 102 104 102Z" fill="#042C49"/>
<path d="M109.6 102C108.8 102 108.3 102.6 108.3 103.3V106C108.3 106.8 108.9 107.3 109.6 107.3C110.3 107.3 110.9 106.7 110.9 106V103.3C110.9 102.6 110.3 102 109.6 102Z" fill="#042C49"/>
<defs>
<radialGradient id="paint0_radial" cx="0" cy="0" r="1" gradientUnits="userSpaceOnUse" gradientTransform="translate(46.5913 62.9219) scale(123.326 123.28)">
<stop stop-color="#FBE7A3"/>
<stop offset="0.4116" stop-color="#D8B97A"/>
<stop offset="1" stop-color="#B3894F"/>
</radialGradient>
</defs>
</svg>
