<svg width="830" height="204" viewBox="0 0 830 204" fill="none" xmlns="http://www.w3.org/2000/svg">
<g filter="url(#filter0_i)">
<path d="M301.969 58.3077V39.2088H212.303V161.862H235.114V114.903H294.423V95.6293H235.114V58.3077H301.969Z" fill="url(#paint0_linear)"/>
<path d="M380.685 68.2952L351.031 137.507L321.551 68.2952H298.74L339.625 162.213L338.046 165.892C333.834 175.179 329.272 178.858 321.551 178.858C315.585 178.858 309.619 176.405 305.408 172.375L296.635 188.495C302.601 193.927 312.427 197.081 321.727 197.081C337.344 197.081 349.276 190.598 357.874 169.396L401.742 68.2952H380.685Z" fill="url(#paint1_linear)"/>
<path d="M459.844 67.2438C446.158 67.2438 434.752 71.7995 427.558 80.3853V68.2952H406.677V161.862H428.611V114.553C428.611 95.8045 439.139 86.3427 454.756 86.3427C468.793 86.3427 477.04 94.4028 477.04 111.049V161.862H498.974V108.245C498.974 80.0348 482.305 67.2438 459.844 67.2438Z" fill="url(#paint2_linear)"/>
<path d="M588.719 31.8496V79.8596C581.35 71.2739 570.646 67.2438 558.538 67.2438C531.34 67.2438 511.161 85.9923 511.161 115.079C511.161 144.165 531.34 163.089 558.538 163.089C571.348 163.089 582.227 158.708 589.597 149.772V161.862H610.653V31.8496H588.719ZM561.171 144.34C545.378 144.34 533.271 132.951 533.271 115.079C533.271 97.2063 545.378 85.817 561.171 85.817C576.963 85.817 589.07 97.2063 589.07 115.079C589.07 132.951 576.963 144.34 561.171 144.34Z" fill="url(#paint3_linear)"/>
<path d="M700.411 31.8496V79.8596C693.041 71.2739 682.337 67.2438 670.23 67.2438C643.032 67.2438 622.853 85.9923 622.853 115.079C622.853 144.165 643.032 163.089 670.23 163.089C683.039 163.089 693.918 158.708 701.288 149.772V161.862H722.344V31.8496H700.411ZM672.862 144.34C657.069 144.34 644.962 132.951 644.962 115.079C644.962 97.2063 657.069 85.817 672.862 85.817C688.654 85.817 700.762 97.2063 700.762 115.079C700.762 132.951 688.654 144.34 672.862 144.34Z" fill="url(#paint4_linear)"/>
<path d="M808.943 68.2952L779.289 137.507L749.81 68.2952H726.999L767.883 162.213L766.304 165.892C762.093 175.179 757.53 178.858 749.81 178.858C743.844 178.858 737.878 176.405 733.666 172.375L724.893 188.495C730.859 193.927 740.685 197.081 749.985 197.081C765.602 197.081 777.534 190.598 786.132 169.396L830 68.2952H808.943Z" fill="url(#paint5_linear)"/>
</g>
<path fill-rule="evenodd" clip-rule="evenodd" d="M16.4536 157.624C42.6408 190.103 87.685 203.634 128.79 187.99C179.911 168.535 205.582 111.321 186.126 60.1993C178.1 39.1112 163.649 22.3541 145.852 11.3089C150.95 18.3216 155.214 26.1184 158.446 34.6108C178.092 86.2297 152.172 144.001 100.553 163.646C71.8895 174.554 41.3295 171.413 16.4536 157.624Z" fill="url(#paint6_radial)"/>
<path fill-rule="evenodd" clip-rule="evenodd" d="M138.931 73.1459C125.678 57.4188 103.335 51.2307 83.2441 59.379C58.2579 69.5128 46.2177 97.9831 56.3514 122.969C60.5315 133.276 67.8315 141.38 76.7199 146.633C74.1325 143.232 71.9481 139.435 70.2648 135.284C60.0324 110.055 72.1898 81.3076 97.4192 71.0752C111.429 65.3932 126.524 66.6153 138.931 73.1459Z" fill="url(#paint7_radial)"/>
<path fill-rule="evenodd" clip-rule="evenodd" d="M145.529 39.3156C125.19 13.6856 89.9469 2.80011 57.6161 14.8187C17.4075 29.7658 -3.07095 74.4783 11.8761 114.687C18.0418 131.273 29.2722 144.502 43.1621 153.272C39.2064 147.741 35.91 141.601 33.4271 134.922C18.3346 94.3223 39.0124 49.1747 79.6123 34.0821C102.157 25.7013 126.104 28.3504 145.529 39.3156Z" fill="url(#paint8_radial)"/>
<g filter="url(#filter1_i)">
<path fill-rule="evenodd" clip-rule="evenodd" d="M16.4536 157.624C42.6408 190.103 87.685 203.634 128.79 187.99C179.911 168.535 205.582 111.321 186.126 60.1993C178.1 39.1112 163.649 22.3541 145.852 11.3089C150.95 18.3216 155.214 26.1184 158.446 34.6108C178.092 86.2297 152.172 144.001 100.553 163.646C71.8895 174.554 41.3295 171.413 16.4536 157.624Z" fill="url(#paint9_radial)"/>
<path fill-rule="evenodd" clip-rule="evenodd" d="M138.931 73.1459C125.678 57.4188 103.335 51.2307 83.2441 59.379C58.2579 69.5128 46.2177 97.9831 56.3514 122.969C60.5315 133.276 67.8315 141.38 76.7199 146.633C74.1325 143.232 71.9481 139.435 70.2648 135.284C60.0324 110.055 72.1898 81.3076 97.4192 71.0752C111.429 65.3932 126.524 66.6153 138.931 73.1459Z" fill="url(#paint10_radial)"/>
<path fill-rule="evenodd" clip-rule="evenodd" d="M145.529 39.3156C125.19 13.6856 89.9469 2.80011 57.6161 14.8187C17.4075 29.7658 -3.07095 74.4783 11.8761 114.687C18.0418 131.273 29.2722 144.502 43.1621 153.272C39.2064 147.741 35.91 141.601 33.4271 134.922C18.3346 94.3223 39.0124 49.1747 79.6123 34.0821C102.157 25.7013 126.104 28.3504 145.529 39.3156Z" fill="url(#paint11_radial)"/>
</g>
<defs>
<filter id="filter0_i" x="212.303" y="31.8496" width="617.697" height="169.231" filterUnits="userSpaceOnUse" color-interpolation-filters="sRGB">
<feFlood flood-opacity="0" result="BackgroundImageFix"/>
<feBlend mode="normal" in="SourceGraphic" in2="BackgroundImageFix" result="shape"/>
<feColorMatrix in="SourceAlpha" type="matrix" values="0 0 0 0 0 0 0 0 0 0 0 0 0 0 0 0 0 0 127 0" result="hardAlpha"/>
<feOffset dy="4"/>
<feGaussianBlur stdDeviation="2"/>
<feComposite in2="hardAlpha" operator="arithmetic" k2="-1" k3="1"/>
<feColorMatrix type="matrix" values="0 0 0 0 0 0 0 0 0 0 0 0 0 0 0 0 0 0 0.25 0"/>
<feBlend mode="normal" in2="shape" result="effect1_innerShadow"/>
</filter>
<filter id="filter1_i" x="0" y="0" width="200.934" height="207.806" filterUnits="userSpaceOnUse" color-interpolation-filters="sRGB">
<feFlood flood-opacity="0" result="BackgroundImageFix"/>
<feBlend mode="normal" in="SourceGraphic" in2="BackgroundImageFix" result="shape"/>
<feColorMatrix in="SourceAlpha" type="matrix" values="0 0 0 0 0 0 0 0 0 0 0 0 0 0 0 0 0 0 127 0" result="hardAlpha"/>
<feOffset dy="4"/>
<feGaussianBlur stdDeviation="2"/>
<feComposite in2="hardAlpha" operator="arithmetic" k2="-1" k3="1"/>
<feColorMatrix type="matrix" values="0 0 0 0 0 0 0 0 0 0 0 0 0 0 0 0 0 0 0.25 0"/>
<feBlend mode="normal" in2="shape" result="effect1_innerShadow"/>
</filter>
<linearGradient id="paint0_linear" x1="386.075" y1="64.1034" x2="384.888" y2="206.149" gradientUnits="userSpaceOnUse">
<stop stop-color="#D2A725"/>
<stop offset="0.989583" stop-color="#755700"/>
</linearGradient>
<linearGradient id="paint1_linear" x1="386.075" y1="64.1034" x2="384.888" y2="206.149" gradientUnits="userSpaceOnUse">
<stop stop-color="#D2A725"/>
<stop offset="0.989583" stop-color="#755700"/>
</linearGradient>
<linearGradient id="paint2_linear" x1="386.075" y1="64.1034" x2="384.888" y2="206.149" gradientUnits="userSpaceOnUse">
<stop stop-color="#D2A725"/>
<stop offset="0.989583" stop-color="#755700"/>
</linearGradient>
<linearGradient id="paint3_linear" x1="386.075" y1="64.1034" x2="384.888" y2="206.149" gradientUnits="userSpaceOnUse">
<stop stop-color="#D2A725"/>
<stop offset="0.989583" stop-color="#755700"/>
</linearGradient>
<linearGradient id="paint4_linear" x1="386.075" y1="64.1034" x2="384.888" y2="206.149" gradientUnits="userSpaceOnUse">
<stop stop-color="#D2A725"/>
<stop offset="0.989583" stop-color="#755700"/>
</linearGradient>
<linearGradient id="paint5_linear" x1="386.075" y1="64.1034" x2="384.888" y2="206.149" gradientUnits="userSpaceOnUse">
<stop stop-color="#D2A725"/>
<stop offset="0.989583" stop-color="#755700"/>
</linearGradient>
<radialGradient id="paint6_radial" cx="0" cy="0" r="1" gradientUnits="userSpaceOnUse" gradientTransform="translate(93.8092 95.4512) rotate(-84.3208) scale(99.0623 98.8141)">
<stop stop-color="#1C73AE"/>
<stop offset="0.661458" stop-color="#0C3E60" stop-opacity="0.96"/>
</radialGradient>
<radialGradient id="paint7_radial" cx="0" cy="0" r="1" gradientUnits="userSpaceOnUse" gradientTransform="translate(101.471 104.611) rotate(94.4387) scale(48.8313 48.7096)">
<stop stop-color="#4099D6"/>
<stop offset="0.661458" stop-color="#5D8199" stop-opacity="0.96"/>
</radialGradient>
<radialGradient id="paint8_radial" cx="0" cy="0" r="1" gradientUnits="userSpaceOnUse" gradientTransform="translate(84.4873 87.602) rotate(96.1229) scale(77.6887 77.4947)">
<stop stop-color="#1C73AE"/>
<stop offset="0.661458" stop-color="#0C3E60" stop-opacity="0.96"/>
</radialGradient>
<radialGradient id="paint9_radial" cx="0" cy="0" r="1" gradientUnits="userSpaceOnUse" gradientTransform="translate(93.8092 95.4512) rotate(-84.3208) scale(99.0623 98.8141)">
<stop stop-color="#1C73AE"/>
<stop offset="0.661458" stop-color="#0C3E60" stop-opacity="0.96"/>
</radialGradient>
<radialGradient id="paint10_radial" cx="0" cy="0" r="1" gradientUnits="userSpaceOnUse" gradientTransform="translate(101.471 104.611) rotate(94.4387) scale(48.8313 48.7096)">
<stop stop-color="#4099D6"/>
<stop offset="0.661458" stop-color="#5D8199" stop-opacity="0.96"/>
</radialGradient>
<radialGradient id="paint11_radial" cx="0" cy="0" r="1" gradientUnits="userSpaceOnUse" gradientTransform="translate(84.4873 87.602) rotate(96.1229) scale(77.6887 77.4947)">
<stop stop-color="#1C73AE"/>
<stop offset="0.661458" stop-color="#0C3E60" stop-opacity="0.96"/>
</radialGradient>
</defs>
</svg>
